{
  "data": [
    "Acura",
    "Audi",
    "BMW",
    "Buick",
    "Cadillac",
    "Chevrolet",
    "Chrysler",
    "Citroen",
    "Dodge",
    "Eagle",
    "Ferrari",
    "Ford",
    "General Motors",
    "GMC",
    "Honda",
    "Hummer",
    "Hyundai",
    "Infiniti",
    "Isuzu",
    "Jaguar",
    "Jeep",
    "Kia",
    "Lamborghini",
    "Land Rover",
    "Lexus",
    "Lincoln",
    "Lotus",
    "Mazda",
    "Mercedes-Benz",
    "Mercury",
    "Mitsubishi",
    "Nissan",
    "Oldsmobile",
    "Peugeot",
    "Pontiac",
    "Porsche",
    "Regal",
    "Renault",
    "Saab",
    "Saturn",
    "Seat",
    "Skoda",
    "Subaru",
    "Suzuki",
    "Toyota",
    "Volkswagen",
    "Volvo"
  ]
}



